,statuse_id,link,username,to,tweet_text,date,retweets,favorites,mentions,hashtags,geo
0,144524930099318784,https://twitter.com/mdsumner/status/144524930099318784,mdsumner,,@jezlurch More dire rect search?,2011-12-07 21:13:23+00:00,0,0,@jezlurch,,
1,128425374014128129,https://twitter.com/mdsumner/status/128425374014128129,mdsumner,,#qanda The Gripes of Bath,2011-10-24 10:59:29+00:00,0,0,,#qanda,
2,126830045338669056,https://twitter.com/mdsumner/status/126830045338669056,mdsumner,BrianCMannaB,@ChrisCMFD great! sunny and warm and no work today,2011-10-20 01:20:13+00:00,0,0,,,
3,126621351992762368,https://twitter.com/mdsumner/status/126621351992762368,mdsumner,deemadigan,@deemadigan A Supposedly Fun Thing I'll Never Do Again ought to suffice,2011-10-19 11:30:57+00:00,0,0,@deemadigan,,
4,126621036279115777,https://twitter.com/mdsumner/status/126621036279115777,mdsumner,,smacktown! http://www.georeference.org/forum/t113032.11#113099,2011-10-19 11:29:42+00:00,0,0,,,
5,120822972310224896,https://twitter.com/mdsumner/status/120822972310224896,mdsumner,,Utopia or Oblivion #qanda,2011-10-03 11:30:16+00:00,0,0,,#qanda,
6,118834278271426560,https://twitter.com/mdsumner/status/118834278271426560,mdsumner,,Always have your stuff when you need it with @Dropbox. 2GB account is free! http://db.tt/HeCgzcN,2011-09-27 23:47:54+00:00,0,0,@Dropbox,,
7,118299951091552257,https://twitter.com/mdsumner/status/118299951091552257,mdsumner,,"Pokies are way more addictively entrapping than online sports gambling. Sports are actual events, not just electronic dice rolls. #qanda",2011-09-26 12:24:40+00:00,0,0,,#qanda,
8,118299378048974848,https://twitter.com/mdsumner/status/118299378048974848,mdsumner,,"Pokies are way more addictively entrapping than online sports gambling. Sports events are actual events, not just rolls of the dice. #qanda",2011-09-26 12:22:24+00:00,0,0,,#qanda,
9,115763085154856960,https://twitter.com/mdsumner/status/115763085154856960,mdsumner,,Let's banish marriage fairly for all #qanda,2011-09-19 12:24:04+00:00,0,0,,#qanda,
10,115762627917004800,https://twitter.com/mdsumner/status/115762627917004800,mdsumner,,It is ok to be a pedophile so long as you don't act on it #qanda,2011-09-19 12:22:15+00:00,0,0,,#qanda,
11,115757287611695104,https://twitter.com/mdsumner/status/115757287611695104,mdsumner,,Send me your money,2011-09-19 12:01:02+00:00,0,0,,,
12,115756893644926976,https://twitter.com/mdsumner/status/115756893644926976,mdsumner,,Does anyone doubt that Palestine's struggle for statehood is unfairly biased by their being on the wrong side of a religious divide? #qanda,2011-09-19 11:59:28+00:00,0,0,,#qanda,
13,115754694911078400,https://twitter.com/mdsumner/status/115754694911078400,mdsumner,,Well go on and get it over with then,2011-09-19 11:50:44+00:00,0,0,,,
14,115754020559269888,https://twitter.com/mdsumner/status/115754020559269888,mdsumner,,"There are thousands of gods I do not believe in, including yours. #qanda",2011-09-19 11:48:03+00:00,0,0,,#qanda,
15,114698819005988866,https://twitter.com/mdsumner/status/114698819005988866,mdsumner,,https://www.bitcasa.com/beta-signup,2011-09-16 13:55:04+00:00,0,0,,,
16,104103629354582016,https://twitter.com/mdsumner/status/104103629354582016,mdsumner,,Here we go again,2011-08-18 08:13:34+00:00,0,0,,,
17,95470756124831744,https://twitter.com/mdsumner/status/95470756124831744,mdsumner,,"All young Tasmanians come back after a few years overseas, there is no where better #qanda",2011-07-25 12:29:36+00:00,1,0,,#qanda,
18,95467529278996480,https://twitter.com/mdsumner/status/95467529278996480,mdsumner,,I've been gambling on the Greens for twenty years and it's paying off #qanda,2011-07-25 12:16:47+00:00,0,0,,#qanda,
19,95465232771723264,https://twitter.com/mdsumner/status/95465232771723264,mdsumner,,Drop all pokies into the Derwent in a sack! #qanda,2011-07-25 12:07:39+00:00,0,0,,#qanda,
20,95459094978232320,https://twitter.com/mdsumner/status/95459094978232320,mdsumner,,Garry Bailey representing Murdochrity on #qanda,2011-07-25 11:43:16+00:00,0,0,,#qanda,
21,95458811871105024,https://twitter.com/mdsumner/status/95458811871105024,mdsumner,,Eric Abetz is the #qanda shock jock,2011-07-25 11:42:08+00:00,0,0,,#qanda,
22,95457884699242496,https://twitter.com/mdsumner/status/95457884699242496,mdsumner,,Wave to your Mum Tassie! #qanda,2011-07-25 11:38:27+00:00,0,0,,#qanda,
23,92934732647645184,https://twitter.com/mdsumner/status/92934732647645184,mdsumner,,"God made us all to be like him, so if we are dumb then God is dumb and maybe even a little ugly on the side #qanda #Zappa",2011-07-18 12:32:21+00:00,0,0,,#qanda #Zappa,
24,92934559850696704,https://twitter.com/mdsumner/status/92934559850696704,mdsumner,,"God made us all to like him, so if we are dumb then God is dumb and maybe even a little ugly on the side #qanda #Zappa",2011-07-18 12:31:40+00:00,0,0,,#qanda #Zappa,
25,92931941652897792,https://twitter.com/mdsumner/status/92931941652897792,mdsumner,,Why does heavy metal get singled out Safran? #qanda,2011-07-18 12:21:16+00:00,0,0,,#qanda,
26,88945051178250240,https://twitter.com/mdsumner/status/88945051178250240,mdsumner,,#qanda stop the scrotes,2011-07-07 12:18:47+00:00,0,0,,#qanda,
27,64132345686540289,https://twitter.com/mdsumner/status/64132345686540289,mdsumner,,"If Superman doesn't believe in America, then he doesn't believe in anything",2011-04-30 01:01:57+00:00,0,0,,,
28,56011887598514176,https://twitter.com/mdsumner/status/56011887598514176,mdsumner,,#nmlivetweet I am in,2011-04-07 15:14:09+00:00,0,0,,#nmlivetweet,
29,56011361334992896,https://twitter.com/mdsumner/status/56011361334992896,mdsumner,,"all is forgiven John Pilger, keep up the good work",2011-04-07 15:12:03+00:00,0,0,,,
30,56006743586648064,https://twitter.com/mdsumner/status/56006743586648064,mdsumner,KJBar,@KJBar love this KB,2011-04-07 14:53:42+00:00,0,0,@KJBar,,
31,56005707274792960,https://twitter.com/mdsumner/status/56005707274792960,mdsumner,,John Pilger needs a good producer,2011-04-07 14:49:35+00:00,0,0,,,
32,56005540240826369,https://twitter.com/mdsumner/status/56005540240826369,mdsumner,,@lateline we love you Kirby,2011-04-07 14:48:55+00:00,0,0,,,
33,55249182264541184,https://twitter.com/mdsumner/status/55249182264541184,mdsumner,,hello from Hobart @nearmap,2011-04-05 12:43:26+00:00,0,0,@nearmap,,
34,53318503859625984,https://twitter.com/mdsumner/status/53318503859625984,mdsumner,,loving these Tassie updates @nearmap,2011-03-31 04:51:36+00:00,0,0,@nearmap,,
35,52206911369658368,https://twitter.com/mdsumner/status/52206911369658368,mdsumner,,Support Tougher Penalties for Animal Cruelty & Neglect Petition http://www.gopetition.com/petition/44115.html via @GoPetition,2011-03-28 03:14:32+00:00,0,0,@GoPetition,,
36,50427649545351169,https://twitter.com/mdsumner/status/50427649545351169,mdsumner,,"No parked cars in the World have a better view from their empty cabins, than the hundreds of cars parked along the Hobart Waterfront, J Gehl",2011-03-23 05:24:23+00:00,0,0,,,
37,49958842238386176,https://twitter.com/mdsumner/status/49958842238386176,mdsumner,,awesome @nearmap in the Tamar!,2011-03-21 22:21:30+00:00,0,0,@nearmap,,
38,49958703889260544,https://twitter.com/mdsumner/status/49958703889260544,mdsumner,,awesome #nearmap in the Tamar!,2011-03-21 22:20:57+00:00,0,0,,#nearmap,
39,45327392767619072,https://twitter.com/mdsumner/status/45327392767619072,mdsumner,,always use safe goodie practices,2011-03-09 03:37:47+00:00,0,0,,,
40,45052268671807488,https://twitter.com/mdsumner/status/45052268671807488,mdsumner,,Stack Exchange QnA site proposal: Game Recommendations http://bit.ly/eZUIWS,2011-03-08 09:24:32+00:00,0,0,,,
41,44294397084450816,https://twitter.com/mdsumner/status/44294397084450816,mdsumner,,NearMap is flying Tassie!,2011-03-06 07:13:01+00:00,0,0,,,
42,44293080941211648,https://twitter.com/mdsumner/status/44293080941211648,mdsumner,,never did come in last,2011-03-06 07:07:48+00:00,0,0,,,
43,44036799605112832,https://twitter.com/mdsumner/status/44036799605112832,mdsumner,,"ok, so stackoverflow is an arse",2011-03-05 14:09:25+00:00,0,0,,,
44,44036005686288385,https://twitter.com/mdsumner/status/44036005686288385,mdsumner,,slack a facker cacker,2011-03-05 14:06:16+00:00,0,0,,,
