,statuse_id,link,username,to,tweet_text,date,retweets,favorites,mentions,hashtags,geo
0,1021448086730739712,https://twitter.com/precariobecario/status/1021448086730739712,precariobecario,UCLMtic,Todos son dispositivos de uso habitual. A la tercera recuperación decredenciales parece que ya puedo acceder sin problemas. Muchas gracias por todo.,2018-07-23 17:32:56+00:00,0,1,,,
1,1021434327261958144,https://twitter.com/precariobecario/status/1021434327261958144,precariobecario,UCLMtic,Gracias. Por algún motivo he tenido que recuperar las credenciales dos veces para poder entrar. Es la segunda vez que me pasa en menos de un mes.,2018-07-23 16:38:15+00:00,0,0,,,
2,1021427578551373824,https://twitter.com/precariobecario/status/1021427578551373824,precariobecario,,@UCLMtic hay algún problema con el acceso al correo y el resto de servicios?,2018-07-23 16:11:26+00:00,0,0,@UCLMtic,,
3,1020648870441779201,https://twitter.com/precariobecario/status/1020648870441779201,precariobecario,dan_p_simpson,Don't miss the Catedral and Museo Nacional de Antropología!!,2018-07-21 12:37:08+00:00,0,1,,,
4,1020609550565740544,https://twitter.com/precariobecario/status/1020609550565740544,precariobecario,MigueBeneito,¡¡Gracias!!,2018-07-21 10:00:53+00:00,1,0,,,
5,1020372964515221506,https://twitter.com/precariobecario/status/1020372964515221506,precariobecario,Vision6_TV,Pequeña entrevista sobre nuestro artículo con aplicaciones a cartografía del cáncer en @Vision6_TV,2018-07-20 18:20:47+00:00,4,9,@Vision6_TV,,
6,1019140979901771776,https://twitter.com/precariobecario/status/1019140979901771776,precariobecario,gilbellosta,¿Tienes alguna referencia para la aplicación real que comentas al final?,2018-07-17 08:45:18+00:00,0,1,,,
7,1019129954485915650,https://twitter.com/precariobecario/status/1019129954485915650,precariobecario,,"Inferencia bayesiana con previas conjugadas, Lacasitos y Juego de Tronos. #VIBASS2",2018-07-17 08:01:30+00:00,3,7,,#VIBASS2,
8,1018844687053000704,https://twitter.com/precariobecario/status/1018844687053000704,precariobecario,,Inferencia bayesiana para determinar la proporción de @Lacasitos rojos en un tubo. #VIBASS2,2018-07-16 13:07:57+00:00,8,13,@Lacasitos,#VIBASS2,
9,1018792071677825026,https://twitter.com/precariobecario/status/1018792071677825026,precariobecario,UV_EG,#VIBASS2,2018-07-16 09:38:52+00:00,0,1,,#VIBASS2,
10,1016735690002968578,https://twitter.com/precariobecario/status/1016735690002968578,precariobecario,LOC_IBC2018,You can find a preprint of this work here: https://arxiv.org/abs/1806.09362,2018-07-10 17:27:33+00:00,1,3,,,
11,1016644696221863938,https://twitter.com/precariobecario/status/1016644696221863938,precariobecario,,Una investigación utiliza un nuevo método por el que se puede estimar la mortalidad por cáncer en provincias o la tasa de crimen por barrios http://www.uclm.es/es/noticias/julio2018/albacete/estudio_cancer_crimenes,2018-07-10 11:25:58+00:00,4,10,,,
12,1012732974889078784,https://twitter.com/precariobecario/status/1012732974889078784,precariobecario,,"And, to be fair, our paper only contributes 1% of the total IF.",2018-06-29 16:22:11+00:00,0,1,,,
13,1012376619506380801,https://twitter.com/precariobecario/status/1012376619506380801,precariobecario,,One of my papers is the fifth (probably just by chance) in the contribution to the 2017 IF of the Journal of Statistical Software (highest IF in Stats again!). Thanks @edzerpebesma for the good news! P.S: It's clear that the IF is mostly due to Bates et al. :) Outlier? @uclm_es,2018-06-28 16:46:09+00:00,6,32,@edzerpebesma @uclm_es,,
14,1011484902733250560,https://twitter.com/precariobecario/status/1011484902733250560,precariobecario,StatsPapers,Our paper on fitting mixture cure models with INLA is in the arXiv now. Describes an interesting approach to fit mixture models with INLA too.,2018-06-26 05:42:47+00:00,6,15,,,
15,1009326796238663680,https://twitter.com/precariobecario/status/1009326796238663680,precariobecario,,Our paper in JRSS-C about multivariate posterior inference for spatial models with INLA is now available on-line!! :),2018-06-20 06:47:15+00:00,8,23,,,
16,1009096869027504128,https://twitter.com/precariobecario/status/1009096869027504128,precariobecario,,Our paper on the DClusterm package for disease cluster detection has been accepted in the Journal of Statistics Software (highest impact factor in Stats!!). #rstats @jstatsoft,2018-06-19 15:33:36+00:00,4,26,@jstatsoft,#rstats,
17,1007957557539897344,https://twitter.com/precariobecario/status/1007957557539897344,precariobecario,emilopezcano,¡¡Enhorabuena!!,2018-06-16 12:06:23+00:00,0,1,,,
18,1006868112166342656,https://twitter.com/precariobecario/status/1006868112166342656,precariobecario,,"La designación del nuevo seleccionador nacional no ayuda a quitarle hierro al asunto, la verdad...",2018-06-13 11:57:19+00:00,0,1,,,
19,1001778263096741889,https://twitter.com/precariobecario/status/1001778263096741889,precariobecario,ProfTonyB,@emilopezcano igual esto te interesa sobre certificación #SixSigma,2018-05-30 10:52:04+00:00,0,1,@emilopezcano,#SixSigma,
20,1001428556285702144,https://twitter.com/precariobecario/status/1001428556285702144,precariobecario,,"Busco graduado/a en Mates, Estadística o similar para solicitar contrato joven investigador en C-LM. Proyecto en estad. computacional y espacial. Requisito estar empadronado en C-LM. URGENTE. + info: https://goo.gl/1VKGiH",2018-05-29 11:42:28+00:00,18,5,,,
21,1001065336890851328,https://twitter.com/precariobecario/status/1001065336890851328,precariobecario,,Notebooks for #VIBASS2 have just arrived!! Summer School on Bayesian Inference in Valencia this July!! https://bayesian.org/vibass-2/,2018-05-28 11:39:09+00:00,4,8,,#VIBASS2,
22,1000984796946984961,https://twitter.com/precariobecario/status/1000984796946984961,precariobecario,,PHD Comics: Summer http://www.phdcomics.com/comics.php?f=2013 vía @phdcomics,2018-05-28 06:19:07+00:00,2,5,@PHDcomics,,
23,998596528125210625,https://twitter.com/precariobecario/status/998596528125210625,precariobecario,eljueves,¡¡Esa es la actitud!! ¿Para qué tanta inversión en I+D?,2018-05-21 16:08:59+00:00,0,2,,,
24,998307017222709248,https://twitter.com/precariobecario/status/998307017222709248,precariobecario,dan_p_simpson,Nice!! Enjoy there! It is a beautiful place!,2018-05-20 20:58:35+00:00,0,1,,,
25,998291770554372098,https://twitter.com/precariobecario/status/998291770554372098,precariobecario,dan_p_simpson,Hey!! Where in Spain are you? Anywhere near Albacete?,2018-05-20 19:58:00+00:00,0,0,,,
26,997920555067158528,https://twitter.com/precariobecario/status/997920555067158528,precariobecario,,Algunos ejemplos con Geogebra y R @Dia_Geogebra #Geogebra #GeogebraAlbacete http://becarioprecario.ocpu.io/GeogebraR/www/,2018-05-19 19:22:55+00:00,7,12,@Dia_Geogebra,#Geogebra #GeogebraAlbacete,
27,997920271913967616,https://twitter.com/precariobecario/status/997920271913967616,precariobecario,,Mapas con Geogebra y R @Dia_Geogebra #Geogebra #GeogebraAlbacete http://becarioprecario.ocpu.io/GeogebraR/www/maps-2.html,2018-05-19 19:21:47+00:00,6,15,@Dia_Geogebra,#Geogebra #GeogebraAlbacete,
28,993908657581711363,https://twitter.com/precariobecario/status/993908657581711363,precariobecario,,@suma_fespm ¿Qué le ha pasado a vuestra web? Aparece como no disponible.,2018-05-08 17:41:04+00:00,0,0,@suma_fespm,,
29,979121163178737664,https://twitter.com/precariobecario/status/979121163178737664,precariobecario,,"El resto no sé, pero tú lo mereces!!",2018-03-28 22:20:51+00:00,0,0,,,
30,976812201930616834,https://twitter.com/precariobecario/status/976812201930616834,precariobecario,,Juan Carlos Izpisúa será investido doctor honoris causa por la UCLM el próximo 13 de abril en Albacete http://www.uclm.es/es/noticias/marzo2018/albacete/izpisua_previa,2018-03-22 13:25:51+00:00,1,2,,,
31,974360028143595520,https://twitter.com/precariobecario/status/974360028143595520,precariobecario,dan_p_simpson,Congratulations!!,2018-03-15 19:01:48+00:00,0,0,,,
32,974195726686347269,https://twitter.com/precariobecario/status/974195726686347269,precariobecario,,Research Fellow in Spatial Epidemiology at London School of Hygiene & Tropical Medicine http://www.jobs.ac.uk/job/BIK487/research-fellow-in-spatial-epidemiology/ #jobsacuk,2018-03-15 08:08:55+00:00,10,6,,#jobsacuk,
33,973316131892137984,https://twitter.com/precariobecario/status/973316131892137984,precariobecario,tGIS_ucm,@robinlovelace,2018-03-12 21:53:43+00:00,0,1,@robinlovelace,,
34,970363610877906944,https://twitter.com/precariobecario/status/970363610877906944,precariobecario,JulianFaraway,A must read if your are doing bayesian modeling with #INLA and #rstats!!,2018-03-04 18:21:27+00:00,2,7,,#INLA #rstats,
35,969508313510699008,https://twitter.com/precariobecario/status/969508313510699008,precariobecario,gilbellosta,Hay algo parecido para aplicaciones en general y no solo el navegador?,2018-03-02 09:42:49+00:00,0,0,,,
36,966288166281007104,https://twitter.com/precariobecario/status/966288166281007104,precariobecario,robinlovelace,Congratulations!!!,2018-02-21 12:27:06+00:00,0,0,,,
37,963112922514849798,https://twitter.com/precariobecario/status/963112922514849798,precariobecario,msf_field,@FarmaciaAB_UCLM,2018-02-12 18:09:49+00:00,2,3,@FarmaciaAB_UCLM,,
38,959149543412641798,https://twitter.com/precariobecario/status/959149543412641798,precariobecario,congosto,¡¡Gracias!! ¿Y con R? ,2018-02-01 19:40:45+00:00,0,1,,,
39,958629208766509056,https://twitter.com/precariobecario/status/958629208766509056,precariobecario,tonmcg,Nice!! ,2018-01-31 09:13:08+00:00,0,2,,,
40,958290190124158976,https://twitter.com/precariobecario/status/958290190124158976,precariobecario,robinlovelace,How to merge different sources of data together to produce maps with R is really simple!!,2018-01-30 10:46:00+00:00,3,5,,,
41,958290056770449408,https://twitter.com/precariobecario/status/958290056770449408,precariobecario,robinlovelace,WOW!! Many thanks for this. It looks really simple!! ,2018-01-30 10:45:28+00:00,0,2,,,
42,956599655281852417,https://twitter.com/precariobecario/status/956599655281852417,precariobecario,,"@robinlovelace please, make sure that in your new book you include how to merge different spatial and non-spatial datasets together. That is still the most FAQ in the courses that I teach on spatial data analysis...",2018-01-25 18:48:25+00:00,0,1,@robinlovelace,,
43,955792755887767552,https://twitter.com/precariobecario/status/955792755887767552,precariobecario,JCornebise,Congratulations!!!! I wish you the best in your new job!!,2018-01-23 13:22:05+00:00,0,0,,,
44,954408560275935232,https://twitter.com/precariobecario/status/954408560275935232,precariobecario,i_gar_fer,Sure!!! :),2018-01-19 17:41:47+00:00,0,1,,,
45,954330810995433473,https://twitter.com/precariobecario/status/954330810995433473,precariobecario,,"València International Bayesian Analysis Summer School, 2nd edition VIBASS2 2018. Bayesian modeling with #rstats and #BayesX. 16-20 July 2010, Valencia (Spain). http://vabar.es/events/vibass2/",2018-01-19 12:32:50+00:00,10,8,,#rstats #BayesX,
46,951487269172645888,https://twitter.com/precariobecario/status/951487269172645888,precariobecario,precariobecario,"Además de por otros motivos, claro está.",2018-01-11 16:13:37+00:00,0,1,,,
47,951486546871451648,https://twitter.com/precariobecario/status/951486546871451648,precariobecario,crismunozp,"De una plaza 'tenure tack' de la Pompeu: ""A command of English and Spanish or Catalan is essential and knowledge of other languages would be an asset."" El no saber catalán de entrada no es excluyente, y creo que por eso sobresale.",2018-01-11 16:10:45+00:00,0,0,,,
48,946740035356938240,https://twitter.com/precariobecario/status/946740035356938240,precariobecario,StatsPapers,Novel paper on fitting mixture models with #INLA and 'modal' Gibbs sampling.,2017-12-29 13:49:48+00:00,2,9,,#INLA,
49,943922080994746368,https://twitter.com/precariobecario/status/943922080994746368,precariobecario,,Y los nacionalistas obtendrían una mayoría absoluta con una probabilidad del 58.61%.,2017-12-21 19:12:15+00:00,1,0,,,
50,943920027278946306,https://twitter.com/precariobecario/status/943920027278946306,precariobecario,,Mi predicción de los resultados de las elecciones en Cataluña. Por cada escaño acertado... ¡¡chupito!!,2017-12-21 19:04:06+00:00,7,9,,,
51,941386277471051781,https://twitter.com/precariobecario/status/941386277471051781,precariobecario,robinlovelace,Congratulations!! :),2017-12-14 19:15:53+00:00,0,1,,,
52,931219801732780034,https://twitter.com/precariobecario/status/931219801732780034,precariobecario,congosto,"Lo es, lo es...",2017-11-16 17:57:56+00:00,0,1,,,
53,931213706846928902,https://twitter.com/precariobecario/status/931213706846928902,precariobecario,congosto,Si me los pasas les puedo echar un ojo... Es mera curiosidad! :),2017-11-16 17:33:43+00:00,0,0,,,
54,931161368996311041,https://twitter.com/precariobecario/status/931161368996311041,precariobecario,,@congosto hay alguna posibilidad de que puedas hacer un análisis de tweets #uclmamenazada vs #uclmlaverdad? :),2017-11-16 14:05:45+00:00,0,1,@congosto,#uclmamenazada #uclmlaverdad,
55,919905418683568133,https://twitter.com/precariobecario/status/919905418683568133,precariobecario,znmeb,"Shared memory will be fine. Ideally, I would simply need to run mclapply's on many, many cores...",2017-10-16 12:38:37+00:00,0,0,,,
56,919887085473009664,https://twitter.com/precariobecario/status/919887085473009664,precariobecario,,"Any good tutorials on using #rstats on Amazon Cloud, Google Cloud or similar? I'll need to run hundreds of #rstats instances in parallel...",2017-10-16 11:25:46+00:00,4,4,,#rstats #rstats,
57,916567973976043521,https://twitter.com/precariobecario/status/916567973976043521,precariobecario,,'INLA within MCMC' paper is finally out!! :),2017-10-07 07:36:48+00:00,19,46,,,
58,910131469959532545,https://twitter.com/precariobecario/status/910131469959532545,precariobecario,,@opencpu what is the best way to embed an #rstats terminal in the browser? I need interaction with the browser via javascript as well...,2017-09-19 13:20:26+00:00,0,1,@opencpu,#rstats,
59,902598529780248576,https://twitter.com/precariobecario/status/902598529780248576,precariobecario,,#PLOSONE: Individual and institutional factors associated with functional disability in nursing home resident ... http://dx.plos.org/10.1371/journal.pone.0183945,2017-08-29 18:27:13+00:00,1,2,,#PLOSONE,
60,894946749906903041,https://twitter.com/precariobecario/status/894946749906903041,precariobecario,richierocks,And thanks to you too!!! :),2017-08-08 15:41:47+00:00,0,1,,,
61,891955558529589249,https://twitter.com/precariobecario/status/891955558529589249,precariobecario,avehtari,Nice! I'll try to write something about the spatial econometrics models that I implemented during your course in Valencia.,2017-07-31 09:35:51+00:00,0,2,,,
62,890663711509143552,https://twitter.com/precariobecario/status/890663711509143552,precariobecario,guardiacivil,¿Cuál es el protocolo a seguir en caso de un ataque zombie? Es por estar preparado...,2017-07-27 20:02:31+00:00,0,8,,,
63,890654835070058496,https://twitter.com/precariobecario/status/890654835070058496,precariobecario,Electograph,Yo quiero una API para acceder a los datos de manera fácil!! ,2017-07-27 19:27:14+00:00,0,0,,,
64,889922694971568134,https://twitter.com/precariobecario/status/889922694971568134,precariobecario,DelegFarmaAB,Ola k ase? Medicamentos o k ase?,2017-07-25 18:57:59+00:00,1,3,,,
65,889865866560634880,https://twitter.com/precariobecario/status/889865866560634880,precariobecario,XaviBarberUMH,¡¡Gracias por las fotos!! La próxima vez avisa que meta barriga... :P,2017-07-25 15:12:10+00:00,0,2,,,
66,885505468566818817,https://twitter.com/precariobecario/status/885505468566818817,precariobecario,,I have put some materials (slides + practicals) together on how to make #rstats packages. Comments welcome!,2017-07-13 14:25:30+00:00,7,8,,#rstats,
67,882281043650367492,https://twitter.com/precariobecario/status/882281043650367492,precariobecario,richierocks,Yes! I am glad that people are still wearing it 4 years later! :),2017-07-04 16:52:47+00:00,0,2,,,
68,882259434101243904,https://twitter.com/precariobecario/status/882259434101243904,precariobecario,daroczig,I love that R logo on the blue t-shirt!! :),2017-07-04 15:26:55+00:00,0,3,,,
69,873152642540818433,https://twitter.com/precariobecario/status/873152642540818433,precariobecario,,Divulgación matemática sobre sistemas de numeración en Proyecto Altas Capacidades con alumnos secundaria en @uclm_es,2017-06-09 12:19:47+00:00,1,0,@uclm_es,,
70,867647501972721664,https://twitter.com/precariobecario/status/867647501972721664,precariobecario,emilopezcano,@FarmaciaAB_UCLM @uclm_es #BayesPharma2017 Conference,2017-05-25 07:44:19+00:00,3,5,@FarmaciaAB_UCLM @uclm_es,#BayesPharma2017,
71,867386523712458759,https://twitter.com/precariobecario/status/867386523712458759,precariobecario,,"Roseann White, Duke Clinical Research Institute y E. Lesaffre, U. Lovaina en congreso #BayesPharma2017 @FarmaciaAB_UCLM @uclm_es",2017-05-24 14:27:17+00:00,0,1,@FarmaciaAB_UCLM @uclm_es,#BayesPharma2017,
72,867382744459956224,https://twitter.com/precariobecario/status/867382744459956224,precariobecario,,Matemática Aplicada y Estadística para Farmacia en @FarmaciaAB_UCLM @uclm_es @emilopezcano,2017-05-24 14:12:16+00:00,9,12,@FarmaciaAB_UCLM @uclm_es @emilopezcano,,
73,867380728631365633,https://twitter.com/precariobecario/status/867380728631365633,precariobecario,,"Roseann White, Duke Clinical Research Institute métodos Bayesianos para diseño 'medical devices' @FarmaciaAB_UCLM @uclm_es #BayesPharma2017",2017-05-24 14:04:15+00:00,7,7,@FarmaciaAB_UCLM @uclm_es,#BayesPharma2017,
74,867344400443207680,https://twitter.com/precariobecario/status/867344400443207680,precariobecario,,Harry Yang de MedImmune métodos Bayesianos y agencias reguladoras medicamentos en congreso #BayesPharma2017 @FarmaciaAB_UCLM @uclm_es,2017-05-24 11:39:54+00:00,7,8,@FarmaciaAB_UCLM @uclm_es,#BayesPharma2017,
75,867064497504227330,https://twitter.com/precariobecario/status/867064497504227330,precariobecario,,Foto de grupo del congreso #BayesPharma2017 en la @FarmaciaAB_UCLM @uclm_es,2017-05-23 17:07:40+00:00,3,4,@FarmaciaAB_UCLM @uclm_es,#BayesPharma2017,
76,866983899389464576,https://twitter.com/precariobecario/status/866983899389464576,precariobecario,,"Steve Scott from @Google talking about Big data, mcmc and Bayesian stats at #BayesPharma2017 at @FarmaciaAB_UCLM @uclm_es",2017-05-23 11:47:24+00:00,7,10,@Google @FarmaciaAB_UCLM @uclm_es,#BayesPharma2017,
77,866613619559206912,https://twitter.com/precariobecario/status/866613619559206912,precariobecario,,Migas manchegas #BayesPharma2017 @uclm_es @FarmaciaAB_UCLM,2017-05-22 11:16:02+00:00,1,6,@uclm_es @FarmaciaAB_UCLM,#BayesPharma2017,
78,866555265881178112,https://twitter.com/precariobecario/status/866555265881178112,precariobecario,,#BayesPharna2017 pre-conference course on Bayesian survival analysis by Carmen Armero et al @uclm_es @FarmaciaAB_UCLM,2017-05-22 07:24:09+00:00,7,9,@uclm_es @FarmaciaAB_UCLM,#BayesPharna2017,
79,865145433911431168,https://twitter.com/precariobecario/status/865145433911431168,precariobecario,,IX Jornadas de Usuarios de R serán en Granada el 16-17 de noviembre de 2017. Envía tu trabajo en http://r-es.org/9jornadasR/ !! #9JRes @R_Hisp,2017-05-18 10:01:59+00:00,11,7,@R_Hisp,#9JRes,
80,862710812389101568,https://twitter.com/precariobecario/status/862710812389101568,precariobecario,emilopezcano,¡¡Enhorabuena!! Espero que te deje importar el CV... :),2017-05-11 16:47:40+00:00,0,0,,,
81,862707749150486529,https://twitter.com/precariobecario/status/862707749150486529,precariobecario,,@elmundoes ¿Por qué no aparece la @uclm_es en vuestro ranking? ¿No tenéis datos? http://www.elmundo.es/especiales/ranking-universidades/,2017-05-11 16:35:30+00:00,0,0,@elmundoes @uclm_es,,
82,862252910113153024,https://twitter.com/precariobecario/status/862252910113153024,precariobecario,,Interested in learning how to develop #rstats packages? Check this course on 11-12 July 2017 in Cartagena (Spain).,2017-05-10 10:28:08+00:00,4,5,,#rstats,
83,859823465662226434,https://twitter.com/precariobecario/status/859823465662226434,precariobecario,EvaGalanMoya,"Sí, pero la inscripción sigue abierta. :) Port si queréis asistir... :D",2017-05-03 17:34:23+00:00,0,2,,,
84,859462896425869314,https://twitter.com/precariobecario/status/859462896425869314,precariobecario,ucfagls,"Colour is within a 'class' attribute, so you can probably scrap the table with #rstats package 'rvest'. :)",2017-05-02 17:41:37+00:00,0,1,,#rstats,
85,859377308494417925,https://twitter.com/precariobecario/status/859377308494417925,precariobecario,,Bayesian stats in pharma industry #BayesPharma2017 conference will start at @uclm_es @FarmaciaAB_UCLM in 3 weeks! http://www.bayes-pharma.org,2017-05-02 12:01:31+00:00,14,15,@uclm_es @FarmaciaAB_UCLM,#BayesPharma2017,
86,859374084924350464,https://twitter.com/precariobecario/status/859374084924350464,precariobecario,g_garciadonato,¡¡Y no te olvides de la tuna!!,2017-05-02 11:48:42+00:00,0,0,,,
87,838842832077131776,https://twitter.com/precariobecario/status/838842832077131776,precariobecario,Demografia_CSIC,I'll be teaching a 2-day course on Spatial Statistics with #rstats 13-14 june 2017. Looking forward to it! Thanks to the organisers!,2017-03-06 20:04:50+00:00,8,13,,#rstats,
88,799237025928876034,https://twitter.com/precariobecario/status/799237025928876034,precariobecario,,Migas manchegas en las #8JRes de #rstats en la @uclm_es en Albacete,2016-11-17 13:05:30+00:00,3,11,@uclm_es,#8JRes #rstats,
89,799210358720364544,https://twitter.com/precariobecario/status/799210358720364544,precariobecario,Pilarhrod,gracias! Problemas técnicos de última hora nos han impedido emitir las jornadas... :(,2016-11-17 11:19:32+00:00,0,0,,,
90,798963887131525120,https://twitter.com/precariobecario/status/798963887131525120,precariobecario,,Y también podrás recoger tus pegatinas donadas por @rstudio sobre paquetes de #rstats en las #8JRes organizadas por @R_Hisp en la @uclm_es,2016-11-16 19:00:09+00:00,3,6,@rstudio @R_Hisp @uclm_es,#rstats #8JRes,
91,798953600730927104,https://twitter.com/precariobecario/status/798953600730927104,precariobecario,,Mañana podrás hojeaR estos libros de @CRC_MathStats sobre #rstats en las #8JRes organizadas por @R_Hisp en la @uclm_es,2016-11-16 18:19:16+00:00,4,7,@CRC_MathStats @R_Hisp @uclm_es,#rstats #8JRes,
92,798953217052835846,https://twitter.com/precariobecario/status/798953217052835846,precariobecario,,Mañana podrás hojeaR estos libros de @SpringerStats sobre #rstats en las #8JRes organizadas por @R_Hisp en la @uclm_es,2016-11-16 18:17:45+00:00,3,4,@SpringerStats @R_Hisp @uclm_es,#rstats #8JRes,
93,798953099381669888,https://twitter.com/precariobecario/status/798953099381669888,precariobecario,,Mañana podrás hojeaR estos libros de @Wiley_Stats sobre #rstats en las #8JRes organizadas por @R_Hisp en la @uclm_es,2016-11-16 18:17:17+00:00,3,2,@Wiley_Stats @R_Hisp @uclm_es,#rstats #8JRes,
94,798492735921602560,https://twitter.com/precariobecario/status/798492735921602560,precariobecario,,R que R... #rstats,2016-11-15 11:47:58+00:00,3,6,,#rstats,
95,794460846856556544,https://twitter.com/precariobecario/status/794460846856556544,precariobecario,ajpelu,Estamos negociando emitir por streaming las charlas.,2016-11-04 08:46:40+00:00,0,0,,,
96,794458395810131968,https://twitter.com/precariobecario/status/794458395810131968,precariobecario,ajpelu,¡Gracias! Vi esa página y está claro que para todo hay una norma o estándar. :) A ver qué tal llegan las que pedí. :),2016-11-04 08:36:56+00:00,0,0,,,
97,794246410824744960,https://twitter.com/precariobecario/status/794246410824744960,precariobecario,,He hecho el diseño en https://hexi.pics y las he pedido en https://camaloon.es :),2016-11-03 18:34:35+00:00,2,2,,,
98,794232604564324352,https://twitter.com/precariobecario/status/794232604564324352,precariobecario,adolfoalvarez,"Gracias!! Ya los tenía localizados, pero voy a ver si les da tiempo.",2016-11-03 17:39:43+00:00,0,0,,,
99,794187950020034560,https://twitter.com/precariobecario/status/794187950020034560,precariobecario,,Where can I order hex stickers on-line? I need some stickers for an R conference in two weeks...,2016-11-03 14:42:17+00:00,0,1,,,
100,791934806183391232,https://twitter.com/precariobecario/status/791934806183391232,precariobecario,geospacedman,:q!,2016-10-28 09:29:05+00:00,0,0,,,
101,788005008709156864,https://twitter.com/precariobecario/status/788005008709156864,precariobecario,erum2020_conf,Thanks for organising such a great R conference!!,2016-10-17 13:13:29+00:00,0,2,,,
102,748249298396020736,https://twitter.com/precariobecario/status/748249298396020736,precariobecario,minebocek,great!! I am glad that it was usefull! ,2016-06-29 20:18:29+00:00,0,0,,,
103,748231467038187520,https://twitter.com/precariobecario/status/748231467038187520,precariobecario,,My tutorial on Small Area Estimation is available here: https://github.com/becarioprecario/SAERTutorial #rstats #useR2016,2016-06-29 19:07:37+00:00,8,14,,#rstats #useR2016,
104,747521786477064192,https://twitter.com/precariobecario/status/747521786477064192,precariobecario,XaviBarberUMH,y yo aquí dando un tuorial... ,2016-06-27 20:07:36+00:00,0,0,,,
105,747198257785253889,https://twitter.com/precariobecario/status/747198257785253889,precariobecario,,Ni la encuesta más favorable para el PP preveía este resultado. Impresionante...,2016-06-26 22:42:01+00:00,0,1,,,
106,746807722897715201,https://twitter.com/precariobecario/status/746807722897715201,precariobecario,,Artículo sobre el 26J actualizado con horquilla más precisa y probabilidades de mayorías en coalición. http://goo.gl/2fSZo0,2016-06-25 20:50:10+00:00,0,0,,,
107,746394114653065216,https://twitter.com/precariobecario/status/746394114653065216,precariobecario,Electograph,"Sí, para los datos. Yo tengo algo de código en R para extraer los datos, pero hay que pulirlo...",2016-06-24 17:26:38+00:00,0,0,,,
108,746360398841004032,https://twitter.com/precariobecario/status/746360398841004032,precariobecario,claudiaguirao,"después de las elecciones (datos+modelos+código R) lo subo todo a github, que ahora está todo el mundo muy nervioso...",2016-06-24 15:12:40+00:00,1,1,,,
109,746358396723560448,https://twitter.com/precariobecario/status/746358396723560448,precariobecario,claudiaguirao,No hay problema. Lo pasé a mano porque hay encuestas con datos incompletos... @Electograph necesitamos una API ya!! :),2016-06-24 15:04:43+00:00,0,0,@Electograph,,
110,745699878710427650,https://twitter.com/precariobecario/status/745699878710427650,precariobecario,epistatistic,efectivamente. :) Similar a http://www.uclm.es/profesorado/vgomez//posts/elecciones/rstats/2015/09/24/encuestas-CAT/,2016-06-22 19:28:00+00:00,0,2,,,
111,745527566652432385,https://twitter.com/precariobecario/status/745527566652432385,precariobecario,,Comparativa de resultados varias predicciones/encuestas de las elecciones del 20D. Mi método no queda mal. :) http://goo.gl/f8GwPl,2016-06-22 08:03:17+00:00,2,6,,,
112,745527247616958464,https://twitter.com/precariobecario/status/745527247616958464,precariobecario,JhonB911,No hay que creerse nada sin evidencia. En las últimas elecciones no lo hicimos muy mal: http://goo.gl/f8GwPl,2016-06-22 08:02:01+00:00,0,1,,,
113,745388904069496832,https://twitter.com/precariobecario/status/745388904069496832,precariobecario,Electograph,"gracias por los datos, pero estaría bien tener una API... :)",2016-06-21 22:52:18+00:00,0,0,,,
114,701780632964349953,https://twitter.com/precariobecario/status/701780632964349953,precariobecario,,My tutorial on 'Small Area Estimation with R' has been accepted at useR! 2016!! :D http://user2016.org/#tutorials #rstats #user2016,2016-02-22 14:48:36+00:00,0,3,,#rstats #user2016,
115,699253550883467264,https://twitter.com/precariobecario/status/699253550883467264,precariobecario,,Así es @CartoDB: los mapas españoles que servirán para cambiar el mundo #ElFuturoEsOne http://bit.ly/20rW4oa,2016-02-15 15:26:52+00:00,0,0,@CartoDB,#ElFuturoEsOne,
116,684829762406191104,https://twitter.com/precariobecario/status/684829762406191104,precariobecario,,Thanks to @revojoe for including our post on the 7th Meeting of Spanish #rstats Users in Salamanca http://goo.gl/cTBNpn,2016-01-06 20:11:53+00:00,2,1,@RevoJoe,#rstats,
117,679624328493809664,https://twitter.com/precariobecario/status/679624328493809664,precariobecario,geospacedman,@geospacedman ah! I thought it was a self-reference statement a la Gödel... :),2015-12-23 11:27:21+00:00,0,0,@geospacedman,,
118,679621855158865920,https://twitter.com/precariobecario/status/679621855158865920,precariobecario,geospacedman,@geospacedman But how do you measure 'ten minutes' without a watch?,2015-12-23 11:17:31+00:00,0,0,@geospacedman,,
119,678872005249253377,https://twitter.com/precariobecario/status/678872005249253377,precariobecario,famuvie,"@famuvie Esos resultados representan el reparto más probable en cada provincia, aunque a veces era del 7% sólo. : ) http://goo.gl/iVabfX",2015-12-21 09:37:53+00:00,0,0,@famuvie,,
120,678751440836435968,https://twitter.com/precariobecario/status/678751440836435968,precariobecario,,Me han bailado 37 escaños. Partidos que recibieron o no recibieron incorrectamente un escaño.http://goo.gl/61Y5D5,2015-12-21 01:38:48+00:00,1,0,,,
121,678655330935508992,https://twitter.com/precariobecario/status/678655330935508992,precariobecario,precariobecario,@kikollan Empieza la fiesta... :) Iré actualizando los resultados en http://goo.gl/61Y5D5 pero la noche va a ser larga... :D,2015-12-20 19:16:54+00:00,0,1,@kikollan,,
122,678516726938644480,https://twitter.com/precariobecario/status/678516726938644480,precariobecario,kikollan,"@kikollan Sí. Y algunas anteriores. Estoy revisando el modelo, pero voy con esos resultados. :)",2015-12-20 10:06:08+00:00,0,0,@kikollan,,
123,678314785621024768,https://twitter.com/precariobecario/status/678314785621024768,precariobecario,,@kikollan ¿Nos apostamos unas cervezas a ver quién afina más? :) http://goo.gl/iVabfX,2015-12-19 20:43:42+00:00,1,5,@kikollan,,
124,677532528320897024,https://twitter.com/precariobecario/status/677532528320897024,precariobecario,,Predicción resultados del 20D con modelo Bayesiano que combina encuestas. ¿Hacemos porra? :) http://goo.gl/iVabfX,2015-12-17 16:55:17+00:00,1,3,,,
125,676518549213618184,https://twitter.com/precariobecario/status/676518549213618184,precariobecario,,Predicciones de los resultados de las elecciones del próximo 20D: http://goo.gl/iVabfX,2015-12-14 21:46:05+00:00,0,0,,,
126,671784250753064960,https://twitter.com/precariobecario/status/671784250753064960,precariobecario,,Una de encuestas electorales... para el público general sobre cómo las hemos hecho en Albacete para el 24M. http://goo.gl/PxWm6D,2015-12-01 20:13:41+00:00,0,0,,,
127,670324104399073283,https://twitter.com/precariobecario/status/670324104399073283,precariobecario,millerdl,¡¡Grande!! :D,2015-11-27 19:31:35+00:00,0,0,,,
128,668839287106981888,https://twitter.com/precariobecario/status/668839287106981888,precariobecario,kyle_e_walker,@kyle_e_walker @DJWrisley @cartoDB You can also check this example: https://github.com/becarioprecario/cartodb-r/blob/master/CartoDB/vignettes/CartoDB.Rmd,2015-11-23 17:11:27+00:00,1,1,@kyle_e_walker @DJWrisley @CartoDB,,
129,657204464986779650,https://twitter.com/precariobecario/status/657204464986779650,precariobecario,ICIOUMH,"Mi charla en la UMH del pasado mes de julio sobre #rstats, INLA y modelos espaciales",2015-10-22 14:38:49+00:00,1,1,,#rstats,
130,653679708933070848,https://twitter.com/precariobecario/status/653679708933070848,precariobecario,,@Josesalver @PoliticaMarkets @ElElectoral @Electograph @kikollan Una tablita como http://tinyurl.com/pj3n5ux mejoraría el acceso a datos...,2015-10-12 21:12:42+00:00,0,0,@JoseSalver @PoliticaMarkets @ElElectoral @Electograph @kikollan,,
131,653601781579169793,https://twitter.com/precariobecario/status/653601781579169793,precariobecario,kikollan,@kikollan Muy interesante. ¿Hay algún sitio donde estén recopiladas todas las encuestas? Es para comparar con otra metodología.,2015-10-12 16:03:02+00:00,0,0,@kikollan,,
132,648259655605571584,https://twitter.com/precariobecario/status/648259655605571584,precariobecario,,Predicciones frente a resultados reales de las elecciones del #27S,2015-09-27 22:15:20+00:00,0,0,,#27S,
133,648194256918708224,https://twitter.com/precariobecario/status/648194256918708224,precariobecario,,Modelo Bayesiano que combina encuestas provinciales y regionales para predecir los escaños el #27S http://tinyurl.com/os3j2k9,2015-09-27 17:55:28+00:00,0,1,,#27S,
134,647841410264264704,https://twitter.com/precariobecario/status/647841410264264704,precariobecario,,Detalles de mi predicción de escaños para las elecciones del #27S con #rstats. http://www.uclm.es/profesorado/vgomez/blog//elecciones/rstats/2015/09/26/encuestas-CATPROV/,2015-09-26 18:33:23+00:00,2,0,,#27S #rstats,
135,647512688382373888,https://twitter.com/precariobecario/status/647512688382373888,precariobecario,,Predicción de escaños para las elecciones catalanas usando modelos Bayesianos y datos de dos encuestas,2015-09-25 20:47:09+00:00,1,3,,,
136,647420317858693120,https://twitter.com/precariobecario/status/647420317858693120,precariobecario,,Análisis Bayesiano de varias encuestas sobre intención de voto en las elecciones catalanas del 27S #rstats #27S http://www.uclm.es/profesorado/vgomez/blog//elecciones/rstats/2015/09/24/encuestas-CAT/,2015-09-25 14:40:06+00:00,0,2,,#rstats #27S,
137,647100111026290688,https://twitter.com/precariobecario/status/647100111026290688,precariobecario,kikollan,@kikollan ¡Gracias! Habrá que hacer una tablita... :),2015-09-24 17:27:43+00:00,0,0,@kikollan,,
138,647097469151641600,https://twitter.com/precariobecario/status/647097469151641600,precariobecario,,@kikollan ¿Es posible acceder a la información completa de las encuestas que has usado en tu estudio sobre las elecciones del 27S?,2015-09-24 17:17:13+00:00,0,0,@kikollan,,
139,617292561355546624,https://twitter.com/precariobecario/status/617292561355546624,precariobecario,,Thanks @user2015aalborg for such a nice #useR2015 conference! You have really taken the useR! conferences to a higher level!,2015-07-04 11:23:10+00:00,2,6,@user2015aalborg,#useR2015,
140,617270376264003584,https://twitter.com/precariobecario/status/617270376264003584,precariobecario,adolfoalvarez,@adolfoalvarez @emilopezcano llegamos estupendamente!! Espero que tú también!! Nos vemos pronto en #RIberoamerica en Albacete!!,2015-07-04 09:55:00+00:00,0,1,@adolfoalvarez @emilopezcano,#RIberoamerica,
141,615981902676279296,https://twitter.com/precariobecario/status/615981902676279296,precariobecario,geospacedman,@geospacedman You missed beeR in your bingo card...,2015-06-30 20:35:04+00:00,0,0,@geospacedman,,
142,604291607471476737,https://twitter.com/precariobecario/status/604291607471476737,precariobecario,,Partido más votado por barrios en #albacete #Elecciones24M,2015-05-29 14:22:01+00:00,0,0,,#albacete #Elecciones24M,
143,598811544223383552,https://twitter.com/precariobecario/status/598811544223383552,precariobecario,,"Y para comparar, los resultados en las europeas de 2014: http://cdb.io/1HiL2Ns Informe completo en http://www.uclm.es/profesorado/vgomez/",2015-05-14 11:26:12+00:00,0,0,,,
144,598811099769757698,https://twitter.com/precariobecario/status/598811099769757698,precariobecario,,Así votará Albacete por barrios en las municipales según nuestra encuesta: http://cdb.io/1E77XDN Informe completo en http://www.uclm.es/profesorado/vgomez/,2015-05-14 11:24:26+00:00,0,0,,,
145,591570945485185024,https://twitter.com/precariobecario/status/591570945485185024,precariobecario,,Informe encuestas elecciones municipales en Albacete 2015: http://www.uclm.es/profesorado/vgomez/elecciones2015/INFMU15.pdf,2015-04-24 11:54:38+00:00,2,1,,,
146,590785920888131584,https://twitter.com/precariobecario/status/590785920888131584,precariobecario,,Alumnos Industriales-Albacete están haciendo encuesta anónima sobre elecciones municipales. Colaborad con ellos. http://albacetecapital.es/en-busca-del-resultado-electoral-del-24-m/,2015-04-22 07:55:14+00:00,0,0,,,
147,581492078573719552,https://twitter.com/precariobecario/status/581492078573719552,precariobecario,,Más proyecciones de resultados electorales en distintas autonomías usando los resultados en Andalucía y #rstats http://www.uclm.es/profesorado/vgomez/elecciones2015/,2015-03-27 16:24:49+00:00,0,0,,#rstats,
148,580887452493041664,https://twitter.com/precariobecario/status/580887452493041664,precariobecario,,Proyección elecciones Cortes C-LM usando resultados en Andalucía #rstats @cartodb http://www.uclm.es/profesorado/vgomez/elecciones2015/predCLM2015.html,2015-03-26 00:22:15+00:00,0,0,@CartoDB,#rstats,
149,457709882,https://twitter.com/precariobecario/status/457709882,precariobecario,,I am working!!,2007-11-30 14:24:22+00:00,0,0,,,
